{
  "dependencies": {
    "mssql5": {
      "type": "mssql",
      "connectionId": "DefaultConnection"
    },
    "mssql4": {
      "type": "mssql",
      "connectionId": "ClearSkyLettingsEnquiryContext"
    },
    "mssql2": {
      "type": "mssql",
      "connectionId": "ClearSkyLettingsPropertiesContext"
    },
    "mssql1": {
      "type": "mssql",
      "connectionId": "ClearSkyLettingsContextConnection"
    },
    "mssql3": {
      "type": "mssql",
      "connectionId": "ClearSkyLettingsPropertyContext"
    }
  }
}